module gitlab.com/shadowy-go/swag

require (
	github.com/ghodss/yaml v1.0.0
	github.com/gin-contrib/sse v0.0.0-20170109093832-22d885f9ecc7 // indirect
	github.com/gin-gonic/gin v1.3.0
	github.com/go-openapi/jsonreference v0.18.0
	github.com/go-openapi/spec v0.18.0
	github.com/golang/protobuf v1.2.0 // indirect
	github.com/mattn/go-isatty v0.0.4 // indirect
	github.com/pkg/errors v0.8.1
	github.com/satori/go.uuid v1.2.0
	github.com/stretchr/testify v1.2.2
	github.com/swaggo/gin-swagger v1.0.0
	github.com/ugorji/go/codec v0.0.0-20181209151446-772ced7fd4c2 // indirect
	github.com/urfave/cli v1.20.0
	golang.org/x/tools v0.0.0-20190114222345-bf090417da8b
	gopkg.in/go-playground/validator.v8 v8.18.2 // indirect
)
